…
|Trackwell raun - GAFL AUTO                    |   3489|    NA|
|Trackwell raun - Skrifstofa VES               |    127|    NA|
> BASE_new <- 
+   BASE_new |> 
+   filter(in.old == "no") |> 
+   select(-in.old)
> 
> ## Checks ----------------------------------------------------------------------
> ### Should one remove whacks?? - not if using positions from ais ---------------
> #   mirror: record where lon is positive but should be negative
> #   ghost: records around the meridian
> BASE_new |> 
+   count(source, whack) |> 
+   spread(whack, n)
# A tibble: 24 × 4
   source                            ghost mirror    ok
   <chr>                             <int>  <int> <int>
 1 APP TÖFLUR                           NA     19    NA
 2 Fishtech raun                        NA    381    NA
 3 Fishtech raun - GAFL AUTO            NA     13    NA
 4 Fontos raun                           1   3274   105
 5 Fontos raun - GAFL AUTO              NA    191    NA
 6 FRA GAFLI - AUTO                     NA     NA    12
 7 FRA GAFLI - AUTO - Skrifstofa VES    NA     NA     7
 8 FRA TAKTIKAL                        215     NA  6768
 9 FRA TAKTIKAL - GAFL AUTO             NA     NA     9
10 GAFL BÓK UPPFÆRÐ FRÁ TAKTIKAL        NA     NA     2
# ℹ 14 more rows
…
+                               "screeeeeeam",
+                               "ok")) |> 
+   count(.sid.in.old)
# A tibble: 2 × 2
  .sid.in.old      n
  <chr>        <int>
1 ok          270182
2 screeeeeeam    388
> LGS_old |> 
+   select(.sid, base) |> 
+   mutate(.sid.in.new = ifelse(.sid %in% LGS_new$.sid,
+                               "screeeeeeam",
+                               "ok")) |> 
+   filter(.sid.in.new == "screeeeeeam")
# A tibble: 388 × 3
    .sid base  .sid.in.new
   <dbl> <chr> <chr>      
 1  8252 old   screeeeeeam
 2  8254 old   screeeeeeam
 3  8278 old   screeeeeeam
 4  8279 old   screeeeeeam
 5  8281 old   screeeeeeam
 6  8285 old   screeeeeeam
 7  8286 old   screeeeeeam
 8  8287 old   screeeeeeam
 9  8288 old   screeeeeeam
10  8289 old   screeeeeeam
# ℹ 378 more rows
…
