…
+   bind_rows(omar::mmsi_icelandic_registry(con) |> collect(),
+             omar::tbl_mar(con, "ops$einarhj.vessel_mmsi_20220405") |> collect(),
+             omar::tbl_mar(con, "ops$einarhj.vessel_mmsi_20201215") |> collect(),
+             omar::tbl_mar(con, "ops$einarhj.vessel_mmsi_20190627") |> collect()) |>
+   select(mmsi, vid) |>
+   distinct() |>
+   mutate(mmsi = as.integer(mmsi))
> # Houston, we have a problem
> mmsi_isl |>
+   group_by(mmsi) |>
+   mutate(n = n()) |>
+   ungroup() |>
+   filter(n > 1) |>
+   arrange(mmsi)
# A tibble: 48 × 3
        mmsi   vid     n
       <int> <dbl> <int>
 1 251146240  7839     2
 2 251146240  2450     2
 3 251158000  3000     2
 4 251158000  1337     2
 5 251172110  3014     2
 6 251172110  2299     2
 7 251175000  3017     2
 8 251175000  2154     2
 9 251179000  3009     2
10 251179000  1903     2
# ℹ 38 more rows
…
