…
|Marína raun                                   |   9228|    NA|
|Marína raun - GAFL AUTO                       |    241|    NA|
|Marína raun - Skrifstofa VES                  |      4|    NA|
|PAPPÍR                                        |    224|  2787|
|Reiknistofa fiskmarkaða raun                  |     10|    NA|
|Reiknistofa fiskmarkaða raun - Skrifstofa VES |      1|    NA|
|STOKKUR                                       |  22759|   201|
|TRACKWELL                                     |   1856| 93661|
|TRACKWELL - GAFL AUTO                         |     NA|   113|
|TRACKWELL BAEKUR                              |     27| 28810|
|Trackwell raun                                | 223871|   377|
|Trackwell raun - GAFL AUTO                    |   3592|    NA|
|Trackwell raun - Skrifstofa VES               |    128|    NA|
|Trackwell raun - Skrifstofa VES - GAFL AUTO   |     77|    NA|
# A tibble: 25 × 4
   source                            ghost mirror    ok
   <chr>                             <int>  <int> <int>
 1 APP TÖFLUR                           NA     19    NA
 2 Fishtech raun                        NA    388    NA
 3 Fishtech raun - GAFL AUTO            NA     14    NA
 4 Fontos raun                           1   3279   107
 5 Fontos raun - GAFL AUTO              NA    192    NA
 6 FRA GAFLI - AUTO                     NA     NA    12
 7 FRA GAFLI - AUTO - Skrifstofa VES    NA     NA     7
 8 FRA TAKTIKAL                        215     NA  6768
 9 FRA TAKTIKAL - GAFL AUTO             NA     NA     9
10 GAFL BÓK UPPFÆRÐ FRÁ TAKTIKAL        NA     NA     2
# ℹ 15 more rows
…
|FRA GAFLI - AUTO                  |   1|   2|     9|  NA|   NA| NA|   NA| NA| NA|  NA|
|FRA GAFLI - AUTO - Skrifstofa VES |   2|  NA|     5|  NA|   NA| NA|   NA| NA| NA|  NA|
|STOKKUR                           | 550| 555| 18963|  NA|   NA| NA| 2165|  2| 94| 430|
|TRACKWELL                         | 146|  85|   141| 332| 1139| 13|   NA| NA| NA|  NA|
# A tibble: 2 × 2
  .sid.in.new       n
  <chr>         <int>
1 ok          3051736
2 screeeeeeam     388
# A tibble: 2 × 2
  .sid.in.old      n
  <chr>        <int>
1 ok          275037
2 screeeeeeam    388
# A tibble: 388 × 3
    .sid base  .sid.in.new
   <dbl> <chr> <chr>      
 1  8252 old   screeeeeeam
 2  8254 old   screeeeeeam
 3  8278 old   screeeeeeam
 4  8279 old   screeeeeeam
 5  8281 old   screeeeeeam
 6  8285 old   screeeeeeam
 7  8286 old   screeeeeeam
 8  8287 old   screeeeeeam
 9  8288 old   screeeeeeam
10  8289 old   screeeeeeam
# ℹ 378 more rows
…
